Lecture 3: Introduction to biostatistics
…
## Data

Fruitflies were divided randomly into groups of 25 each. 
The response was the longevity of the fruitfly in days. One group was kept
solitary, while another was given 8 virgin females per day. 

```r
library(tidyverse)
fruitfly_2_groups <- read_csv("data/fruitfly_2_groups.csv")
fruitfly_2_groups
```

```
## # A tibble: 50 × 2
##    longevity sexually_active
##        <dbl> <chr>          
##  1        40 No             
##  2        37 No             
##  3        44 No             
##  4        47 No             
##  5        47 No             
##  6        47 No             
##  7        68 No             
##  8        47 No             
##  9        54 No             
## 10        61 No             
## # … with 40 more rows
```
…
